{
  "Networks": [
    {
      "id": "ark_mainnet",
      "first_char": "A",
      "epoch": "2017,3,21,13,00,00",
      "version": 23,
      "wif": 170
    },
    {
      "id": "ark_devnet",
      "first_char": "D",
      "epoch": "2017,3,21,13,00,00",
      "version": 30,
      "wif": 170
    },
    {
      "id": "compendia_mainnet",
      "first_char": "c",
      "epoch": "2020,8,21,16,00,00",
      "version": 88,
      "wif": 171
    },
    {
      "id": "compendia_testnet",
      "first_char": "d",
      "epoch": "2020,3,3,20,30,00",
      "version": 90,
      "wif": 170
    },
    {
      "id": "qredit_v2_mainnet",
      "first_char": "X",
      "epoch": "2021,1,21,21,21,21",
      "version": 75,
      "wif": 26
    },
    {
      "id": "solar_mainnet",
      "first_char": "S",
      "epoch": "2022,03,16,18,0,0",
      "version": 63,
      "wif": 252
    },
    {
      "id": "solar_testnet",
      "first_char": "D",
      "epoch": "2023,01,25,23,0,0",
      "version": 30,
      "wif": 252
    }
  ]
}
